# split.absy_tt        central        num_err    min (scale)        num_err    max (scale)        num_err
# x-pT_t2ATLASv2_0.5-1
            350      3.7302752   0.0021638499      3.2137733   0.0015235336      3.9973711   0.0029325922
            425      5.5755515   0.0041104739      5.0128565   0.0028857451      5.6733063   0.0054981853
            475      5.0496654    0.034481299     0.85191532    0.058366013      6.6222439    0.021525487
            525      4.5041697    0.021809145      4.2629643    0.013540521       5.051781    0.037128778
            600       1.770123   0.0082432958      1.6840258   0.0050920727      1.9857917    0.014115273
            700    0.085619261  0.00032862182    0.082048922  0.00020302371    0.096600886    0.000562544
           2000    0.085619261  0.00032862182    0.082048922  0.00020302371    0.096600886    0.000562544
