# split.pT_ttx-        central        num_err    min (scale)        num_err    max (scale)        num_err
# m_ttxATLASv1_0-100
            900   0.0049595447  4.4056309e-05  0.00064699421  7.3915789e-05   0.0065947536  2.7631264e-05
           1100    0.019643785  0.00012138358    0.014069046  0.00020434643    0.022491657  7.5902446e-05
           1200    0.016683083   9.623167e-05    0.014154305  0.00015956491    0.018208444  6.0869542e-05
           1350   0.0093841261  3.7070806e-05   0.0082624301   6.354791e-05    0.010154331  2.2923736e-05
           1600   0.0008088936  3.0233588e-06  0.00073584113  5.3509907e-06  0.00086903776  1.8335571e-06
           4000   0.0008088936  3.0233588e-06  0.00073584113  5.3509907e-06  0.00086903776  1.8335571e-06
