# split.absy_t1        central        num_err    min (scale)        num_err    max (scale)        num_err
# -pT_t1_ATLAS_0.2-0.5
            500      16.016306       3.874369      14.628264      2.7379297      17.117694      5.6397744
            550      9.9506296       2.288391       9.134447       1.617101      10.463106      3.3344865
            600      6.0129216     0.99240642      5.2900367     0.69610992      6.7397489      1.4560715
            700      0.1893992    0.036812075     0.15020744    0.053365537     0.19724754    0.026160388
           2000      0.1893992    0.036812075     0.15020744    0.053365537     0.19724754    0.026160388
