user.pjacka.601230.PhPy8EG.DAOD_PHYS.e8514_s4159_r15530_p6266.240919-v0_output
user.pjacka.601229.PhPy8EG.DAOD_PHYS.e8514_s4159_r15530_p6266.240919-v0_output
user.pjacka.601237.PhPy8EG.DAOD_PHYS.e8514_s4159_r15530_p6266.240919-v0_output
user.pjacka.602637.PhPy8EG.DAOD_PHYS.e8549_s4159_r15224_p6266.240919-v0_output
user.pjacka.601631.PhPy8EG.DAOD_PHYS.e8549_s4159_r15224_p6266.240919-v0_output
user.pjacka.700995.Sh_2214_ttW_0Lfilter.DAOD_PHYS.e8532_s4159_r15224_p6266.240919-v0_output
user.pjacka.700997.Sh_2214_ttW_2Lfilter.DAOD_PHYS.e8532_s4159_r15224_p6266.240919-v0_output
user.pjacka.700996.Sh_2214_ttW_1Lfilter.DAOD_PHYS.e8532_s4159_r15224_p6266.240919-v0_output
user.pjacka.601627.PhPy8EG.DAOD_PHYS.e8549_s4159_r15224_p6266.240919-v0_output
user.pjacka.602638.PhPy8EG.DAOD_PHYS.e8549_s4159_r15224_p6266.240919-v0_output
user.pjacka.601355.PhPy8EG.DAOD_PHYS.e8551_s4159_r15224_p6266.240919-v0_output
user.pjacka.601352.PhPy8EG.DAOD_PHYS.e8551_s4159_r15224_p6266.240919-v0_output
