       350       4.3474832   0.00097063158
       400        5.416634    0.0012262205
       440       7.9509828     0.001782847
       480       8.7207095     0.013504397
       520       7.2566629      0.01008805
       570        3.971796    0.0054940759
       625       1.9952398    0.0026680314
       700      0.84602356    0.0012505457
       800     0.050082012   5.5763578e-05
      2000     0.050082012   5.5763578e-05
