user.rlysak.410559.PowhegHerwig7EvtGen.DAOD_TOPQ1.e6567_s3126_r10201_p3731.AT-21.2.45-MC16dSignal-v7_allhad_boosted_root
user.rlysak.410466.aMcAtNloPy8EvtGen.DAOD_TOPQ1.e6762_s3126_r10201_p3731.AT-21.2.45-MC16dSignal-v7_allhad_boosted_root  
user.rlysak.410429.PhPy8EG.DAOD_TOPQ1.e6735_s3126_r10201_p3731.AT-21.2.45-MC16dSignal-v7_allhad_boosted_root            
user.rlysak.410433.PowhegHerwig7EvtGen.DAOD_TOPQ1.e6815_s3126_r10201_p3731.AT-21.2.45-MC16dSignal-v7_allhad_boosted_root
user.rlysak.410446.PowhegHerwig7EvtGen.DAOD_TOPQ1.e6815_s3126_r10201_p3731.AT-21.2.45-MC16dSignal-v7_allhad_boosted_root
user.rlysak.410471.PhPy8EG.DAOD_TOPQ1.e6337_s3126_r10201_p3731.AT-21.2.45-MC16dSignal-v7_allhad_boosted_root            
user.rlysak.410444.PhPy8EG.DAOD_TOPQ1.e6735_s3126_r10201_p3731.AT-21.2.45-MC16dSignal-v7_allhad_boosted_root            
user.rlysak.410481.PhPy8EG.DAOD_TOPQ1.e6520_s3126_r10201_p3731.AT-21.2.45-MC16dSignal-v7_allhad_boosted_root            
user.rlysak.410431.PhPy8EG.DAOD_TOPQ1.e6735_s3126_r10201_p3731.AT-21.2.45-MC16dSignal-v7_allhad_boosted_root
user.rlysak.410445.PhPy8EG.DAOD_TOPQ1.e6735_s3126_r10201_p3731.AT-21.2.45-MC16dSignal-v12_allhad_boosted_root 
user.rlysak.410435.aMcAtNloPy8EvtGen.DAOD_TOPQ1.e6816_s3126_r10201_p3731.AT-21.2.45-MC16dSignal-v12_allhad_boosted_root
user.rlysak.410447.aMcAtNloPythia8EvtGen.DAOD_TOPQ1.e6816_s3126_r10201_p3731.AT-21.2.45-MC16dSignal-v12_allhad_boosted_root
user.rlysak.410470.PhPy8EG.DAOD_TOPQ1.e6337_s3126_r10201_p3629.AT-21.2.45-MC16d-v4_allhad_boosted_root
user.rlysak.410646.PowhegPythia8EvtGen.DAOD_TOPQ1.e6552_s3126_r10201_p3629.AT-21.2.45-MC16d-v4_allhad_boosted_root
user.rlysak.410647.PowhegPythia8EvtGen.DAOD_TOPQ1.e6552_s3126_r10201_p3629.AT-21.2.45-MC16d-v4_allhad_boosted_root
user.rlysak.346345.PhPy8EG.DAOD_TOPQ1.e7148_s3126_r10201_p3731.AT-21.2.45-MC16d-v12_allhad_boosted_root
user.rlysak.346344.PhPy8EG.DAOD_TOPQ1.e7148_s3126_r10201_p3731.AT-21.2.45-MC16d-v12_allhad_boosted_root
user.rlysak.346343.PhPy8EG.DAOD_TOPQ1.e7148_s3126_r10201_p3731.AT-21.2.45-MC16d-v12_allhad_boosted_root
user.rlysak.410157.aMcAtNloPythia8EvtGen.DAOD_TOPQ1.e5070_s3126_r10201_p3731.AT-21.2.45-MC16d-v12_allhad_boosted_root
user.rlysak.410156.aMcAtNloPythia8EvtGen.DAOD_TOPQ1.e5070_s3126_r10201_p3731.AT-21.2.45-MC16d-v12_allhad_boosted_root
user.rlysak.410155.aMcAtNloPythia8EvtGen.DAOD_TOPQ1.e5070_s3126_r10201_p3731.AT-21.2.45-MC16d-v12_allhad_boosted_root


