# split.absy_t1        central        num_err    min (scale)        num_err    max (scale)        num_err
# -absy_t2_ATLAS_0.2-0.5
              0      1355.3615      249.73502       1265.137      361.82415      1356.6378      224.02512
            0.2      1223.9961      3.3434383      1104.9567      5.6290596      1236.5733      2.9719709
            0.5      944.42538      134.66707      833.30766       196.4671      960.21192      120.04803
              1      387.93872      54.646501      356.12399      80.679079      392.79424      48.217804
              2      387.93872      54.646501      356.12399      80.679079      392.79424      48.217804
