# split.absy_tt        central        num_err    min (scale)        num_err    max (scale)        num_err
# x-absy_t1ATLASv2_0.2-0.5
              0       2128.323        341.714      1886.2422      497.66567      2166.1373      305.16251
            0.2       1840.961      196.39218       1615.625      287.01231      1868.6495      174.83498
            0.5      1584.1263       181.7757      1495.6708       128.0886      1608.8101       205.9824
            0.9      263.25875      39.200822      234.42148       58.22573      266.79007      34.389631
              2      263.25875      39.200822      234.42148       58.22573      266.79007      34.389631
