       350       1.7905782    0.0042642663
       400       2.2244097    0.0065211422
       430        3.029554    0.0085663443
       460       8.3183565     0.024173023
       500       13.860008       0.0376702
       530        9.985875     0.027564312
       560       6.1784594    0.0096441682
       625       3.0655347    0.0049487539
       700       1.3771031     0.002149862
       800        0.152561   0.00015513042
      1500        0.152561   0.00015513042
