         0        14.02335     0.024433682
        45       13.456507     0.015558101
        90       6.5957951    0.0086707095
       140       4.0283617    0.0061057559
       190       2.3715458    0.0041530388
       240       1.3844698    0.0025901611
       300      0.81957956    0.0018165688
       360      0.46312163   0.00098085635
       460      0.23192489   0.00055571086
       600      0.12904028   0.00030073417
      1000      0.12904028   0.00030073417
