user.pjacka.410428.PhPy8EG.DAOD_TOPQ4.e6735_s3126_r9364_p4260.AT-21.2.173-MC16aSignal-v2_allhad_boosted_root	
user.pjacka.410429.PhPy8EG.DAOD_TOPQ4.e6735_s3126_r9364_p4514.AT-21.2.173-MC16aSignal-v2_allhad_boosted_root	
user.pjacka.410444.PhPy8EG.DAOD_TOPQ4.e6735_s3126_r9364_p4514.AT-21.2.173-MC16aSignal-v2_allhad_boosted_root	
user.pjacka.410471.PhPy8EG.DAOD_TOPQ4.e6337_s3126_r9364_p4514.AT-21.2.173-MC16aSignal-v2_allhad_boosted_root

user.pjacka.410433.PowhegHerwig7EvtGen.DAOD_TOPQ4.e6815_s3126_r9364_p4260.AT-21.2.173-Updated-MC16aSigMod-v2_allhad_boosted_root
user.pjacka.410446.PowhegHerwig7EvtGen.DAOD_TOPQ4.e6815_s3126_r9364_p4260.AT-21.2.173-Updated-MC16aSigMod-v2_allhad_boosted_root
user.pjacka.410466.aMcAtNloPy8EvtGen.DAOD_TOPQ4.e6762_s3126_r9364_p4514.AT-21.2.173-Updated-MC16aSigMod-v1_allhad_boosted_root
user.pjacka.410481.PhPy8EG.DAOD_TOPQ4.e6520_s3126_r9364_p4514.AT-21.2.173-Updated-MC16aSigMod-v1_allhad_boosted_root
user.pjacka.410559.PowhegHerwig7EvtGen.DAOD_TOPQ4.e6567_s3126_r9364_p4514.AT-21.2.173-Updated-MC16aSigMod-v1_allhad_boosted_root
user.pjacka.410445.PhPy8EG.DAOD_TOPQ4.e6735_s3126_r9364_p4514.AT-21.2.173-Updated-MC16aSigMod-v1_allhad_boosted_root
user.pjacka.410431.PhPy8EG.DAOD_TOPQ4.e6735_s3126_r9364_p4514.AT-21.2.173-Updated-MC16aSigMod-v1_allhad_boosted_root
user.pjacka.411339.PowhegHerwig7EvtGen.DAOD_TOPQ4.e7951_s3126_r9364_p4514.AT-21.2.173-Updated-MC16aSigMod-v3_allhad_boosted_root
user.pjacka.600031.PhPy8EG.DAOD_TOPQ4.e8041_s3126_r9364_p4514.AT-21.2.173-Updated-MC16aSigMod-v3_allhad_boosted_root
user.pjacka.600067.PhPy8EG.DAOD_TOPQ4.e8092_s3126_r9364_p4514.AT-21.2.173-Updated-MC16aSigMod-v3_allhad_boosted_root
user.pjacka.600068.PhPy8EG.DAOD_TOPQ4.e8092_s3126_r9364_p4514.AT-21.2.173-Updated-MC16aSigMod-v3_allhad_boosted_root
user.pjacka.411338.PowhegHerwig7EvtGen.DAOD_TOPQ4.e7951_s3126_r9364_p4514.AT-21.2.173-Updated-MC16aSigMod-v3_allhad_boosted_root
user.pjacka.411316.PowhegHerwig7EvtGen.DAOD_TOPQ4.e7765_s3126_r9364_p4514.AT-21.2.173-Updated-MC16aSigMod-v3_allhad_boosted_root
user.pjacka.410435.aMcAtNloPy8EvtGen.DAOD_TOPQ4.e6816_s3126_r9364_p4514.AT-21.2.173-Updated-MC16aSigMod-v1_allhad_boosted_root
user.pjacka.410447.aMcAtNloPythia8EvtGen.DAOD_TOPQ4.e6816_s3126_r9364_p4514.AT-21.2.173-Updated-MC16aSigMod-v1_allhad_boosted_root


user.pjacka.410470.PhPy8EG.DAOD_TOPQ4.e6337_s3126_r9364_p4258.AT-21.2.173-MC16aSignal-v2_allhad_boosted_root
user.pjacka.346343.PhPy8EG.DAOD_TOPQ4.e7148_s3126_r9364_p4514.AT-21.2.173-MC16a-v2_allhad_boosted_root    
user.jhejbal.346344.PhPy8EG.DAOD_TOPQ4.e7148_s3126_r9364_p4258.AT-21.2.173-MC16a-v5_allhad_boosted_root.RENEWED    
user.jhejbal.346345.PhPy8EG.DAOD_TOPQ4.e7148_s3126_r9364_p4258.AT-21.2.173-MC16a-v5_allhad_boosted_root.RENEWED    
user.jhejbal.410155.aMcAtNloPythia8EvtGen.DAOD_TOPQ4.e5070_s3126_r9364_p4258.AT-21.2.173-MC16a-v5_allhad_boosted_root.RENEWED    
user.jhejbal.410156.aMcAtNloPythia8EvtGen.DAOD_TOPQ4.e5070_s3126_r9364_p4258.AT-21.2.173-MC16a-v5_allhad_boosted_root.RENEWED    
user.jhejbal.410157.aMcAtNloPythia8EvtGen.DAOD_TOPQ4.e5070_s3126_r9364_p4258.AT-21.2.173-MC16a-v5_allhad_boosted_root.RENEWED    
user.jhejbal.410646.PowhegPythia8EvtGen.DAOD_TOPQ4.e6552_s3126_r9364_p4258.AT-21.2.173-MC16a-v5_allhad_boosted_root.RENEWED    
user.jhejbal.410647.PowhegPythia8EvtGen.DAOD_TOPQ4.e6552_s3126_r9364_p4258.AT-21.2.173-MC16a-v5_allhad_boosted_root.RENEWED    
user.jhejbal.600027.PhPy8EG.DAOD_TOPQ4.e8041_s3126_r9364_p4258.AT-21.2.173-MC16a-v5_allhad_boosted_root.RENEWED
user.jhejbal.600028.PhPy8EG.DAOD_TOPQ4.e8041_s3126_r9364_p4258.AT-21.2.173-MC16a-v5_allhad_boosted_root.RENEWED

user.pjacka.507564.MGPy8.DAOD_TOPQ4.e8352_s3126_r9364_p4514.AT-21.2.173-MC16aSignal-v2_allhad_boosted_root
user.pjacka.507568.MGPy8.DAOD_TOPQ4.e8352_s3126_r9364_p4514.AT-21.2.173-MC16aSignal-v2_allhad_boosted_root
