user.pjacka.410428.PhPy8EG.DAOD_TOPQ4.e6735_s3126_r9364_p3793.AT-21.2.74-MC16aSignal-test7_allhad_boosted_root               
user.pjacka.410429.PhPy8EG.DAOD_TOPQ4.e6735_s3126_r9364_p3793.AT-21.2.74-MC16aSignal-test8_allhad_boosted_root               
user.pjacka.410444.PhPy8EG.DAOD_TOPQ4.e6735_s3126_r9364_p3793.AT-21.2.74-MC16aSignal-test8_allhad_boosted_root               
user.pjacka.410471.PhPy8EG.DAOD_TOPQ4.e6337_s3126_r9364_p3793.AT-21.2.74-MC16aSignal-test7_allhad_boosted_root               
user.pjacka.410431.PhPy8EG.DAOD_TOPQ4.e6735_s3126_r9364_p3793.AT-21.2.74-MC16aSigMod-test7_allhad_boosted_root               
user.pjacka.410433.PowhegHerwig7EvtGen.DAOD_TOPQ4.e6815_s3126_r9364_p3793.AT-21.2.74-MC16aSigMod-test7_allhad_boosted_root   
user.pjacka.410435.aMcAtNloPy8EvtGen.DAOD_TOPQ4.e6816_s3126_r9364_p3793.AT-21.2.74-MC16aSigMod-test7_allhad_boosted_root     
user.pjacka.410445.PhPy8EG.DAOD_TOPQ4.e6735_s3126_r9364_p3793.AT-21.2.74-MC16aSigMod-test7_allhad_boosted_root               
user.pjacka.410446.PowhegHerwig7EvtGen.DAOD_TOPQ4.e6815_s3126_r9364_p3793.AT-21.2.74-MC16aSigMod-test7_allhad_boosted_root   
user.pjacka.410447.aMcAtNloPythia8EvtGen.DAOD_TOPQ4.e6816_s3126_r9364_p3793.AT-21.2.74-MC16aSigMod-test7_allhad_boosted_root 
user.pjacka.410466.aMcAtNloPy8EvtGen.DAOD_TOPQ4.e6762_s3126_r9364_p3793.AT-21.2.74-MC16aSigMod-test7_allhad_boosted_root     
user.pjacka.410481.PhPy8EG.DAOD_TOPQ4.e6520_s3126_r9364_p3793.AT-21.2.74-MC16aSigMod-test7_allhad_boosted_root               
user.pjacka.410559.PowhegHerwig7EvtGen.DAOD_TOPQ4.e6567_s3126_r9364_p3793.AT-21.2.74-MC16aSigMod-test7_allhad_boosted_root   
user.pjacka.346343.PhPy8EG.DAOD_TOPQ4.e7148_s3126_r9364_p3793.AT-21.2.74-MC16a-test6_allhad_boosted_root                     
user.pjacka.346344.PhPy8EG.DAOD_TOPQ4.e7148_s3126_r9364_p3793.AT-21.2.74-MC16a-test6_allhad_boosted_root                     
user.pjacka.346345.PhPy8EG.DAOD_TOPQ4.e7148_s3126_r9364_p3793.AT-21.2.74-MC16a-test6_allhad_boosted_root                     
user.pjacka.410155.aMcAtNloPythia8EvtGen.DAOD_TOPQ4.e5070_s3126_r9364_p3793.AT-21.2.74-MC16a-test6_allhad_boosted_root       
user.pjacka.410156.aMcAtNloPythia8EvtGen.DAOD_TOPQ4.e5070_s3126_r9364_p3793.AT-21.2.74-MC16a-test6_allhad_boosted_root       
user.pjacka.410157.aMcAtNloPythia8EvtGen.DAOD_TOPQ4.e5070_s3126_r9364_p3793.AT-21.2.74-MC16a-test6_allhad_boosted_root       
user.pjacka.410470.PhPy8EG.DAOD_TOPQ4.e6337_s3126_r9364_p3793.AT-21.2.74-MC16a-test6_allhad_boosted_root                     
user.pjacka.410646.PowhegPythia8EvtGen.DAOD_TOPQ4.e6552_s3126_r9364_p3793.AT-21.2.74-MC16a-test6_allhad_boosted_root         
user.pjacka.410647.PowhegPythia8EvtGen.DAOD_TOPQ4.e6552_s3126_r9364_p3793.AT-21.2.74-MC16a-test6_allhad_boosted_root         

