{
    "lumi" : {
        "value": 36207.66,
        "uncert": 3.2,
        "string": "36.2 fb^{-1}",
        "runNumber_min": 276262,
        "runNumber_max": 311481
    },
    "lumi_data1516" : {
        "value": 36207.66,
        "uncert": 3.2,
        "string": "36.2 fb^{-1}",
        "runNumber_min": 276262,
        "runNumber_max": 311481
    },
    "lumi_data17" : {
        "value": 44307.4,
        "uncert": 2.4,
        "string": "44.3 fb^{-1}",
        "runNumber_min": 325713,
        "runNumber_max": 340453
    },
    "lumi_data18" : {
        "value": 58450.1,
        "uncert": 2.0,
        "string": "58.4 fb^{-1}",
        "runNumber_min": 340454
    },
    "lumi_data22" : {
        "value": 58450.1,
        "uncert": 2.0,
        "string": "58.4 fb^{-1}",
        "runNumber_min": 340454
    },
    "lumi_data23" : {
        "value": 58450.1,
        "uncert": 2.0,
        "string": "58.4 fb^{-1}",
        "runNumber_min": 340454
    },
    "lumi_dataAllYears" : {
        "value": 138965.16,
        "uncert": 1.7,
        "string": "139 fb^{-1}",
        "runNumber_min": 276262
    }
}
