{
  "treeReaderSettings": {
    "bTaggerName": "GN2v01",
    "bTaggerUseContinuousWP": true,
    "bTaggerContinuousWP": "Continuous",
    "bTaggerUseFixedWP": false,
    "useBTaggerWeights": true,
    "topTaggerName": "DNNTaggerTopQuarkContained80"
  },
  "objectSettings": {
		 "largeRJetType": "LJETS", 
		 "useTrackJets": false, 
		 "useVarRCJets": false, 
		 "useVarRCJetsSubstructure": false, 
		 "useRCJets": false, 
		 "useRCJetsSubstructure": false
  }
}
