# split.absy_t2        central        num_err    min (scale)        num_err    max (scale)        num_err
# -pT_t2_ATLASv2_0.2-0.5
            350      4.0210844   0.0029262926      3.4919963   0.0020574089      4.2802124   0.0040030665
            425      6.1409949   0.0064425734      5.5676796   0.0044427988      6.1942343   0.0087662063
            475      2.9569907       2.376677     -3.2606651      3.4620477      5.6036759      1.6785438
            525       5.224546      2.1941978      4.9177425      1.5510105      5.7690289      3.1944246
            600   0.0076905357      0.9411498    -0.77313503      1.3745426     0.53108092     0.66322182
            700     0.11377037     0.03447477     0.10899417    0.024160528     0.12471664    0.050647677
           2000     0.11377037     0.03447477     0.10899417    0.024160528     0.12471664    0.050647677
