#     pT_tATLAS        central        num_err    min (scale)        num_err    max (scale)        num_err
            350      1.8927612   0.0044500292      1.3138227   0.0031217661       2.814541   0.0065505781
            400       2.323355   0.0066750392      1.6169153   0.0047038613      3.4445366   0.0097770814
            430      3.1341519   0.0086584872      2.1870535   0.0061249676      4.6324139    0.012628339
            460       8.464434    0.023882413      5.9288302    0.016888032      12.456142    0.034821227
            500      13.745008    0.036574559      12.420898    0.026171847      14.522484    0.054744726
            530      9.9316106    0.027030566      8.9298791    0.019302857      10.581342    0.040387996
            560      6.0998921    0.009514295      5.4671128   0.0068376546      6.5309636    0.014357779
            625       3.042695   0.0049294894      2.7118322   0.0035495446      3.2861735   0.0074278018
            700      1.3519472   0.0021105683      1.2011245   0.0015292179      1.4668718    0.003181861
            800     0.14885894   0.0001490965     0.13203806  0.00010947613     0.16178221  0.00022731657
           1500     0.14885894   0.0001490965     0.13203806  0.00010947613     0.16178221  0.00022731657
