# split.absy_tt        central        num_err    min (scale)        num_err    max (scale)        num_err
# x-pT_t1ATLAS_0-0.2
            500      16.329183    0.049774196      13.919473    0.035474146      18.966449    0.076079865
            550      10.109374    0.030478866      8.5404472    0.021669662      11.894018    0.046493805
            600      5.2457038    0.010549465      4.3893132   0.0075191934      6.2550475    0.016227874
            700     0.32165548  0.00037552218     0.26620406   0.0002695252     0.38920636  0.00058544943
           2000     0.32165548  0.00037552218     0.26620406   0.0002695252     0.38920636  0.00058544943
