         0       1706.8759       7.7285588
      0.07       1709.6467        7.761645
      0.14       1684.0403       7.8076024
      0.21       1653.1712       8.6048898
      0.28       1629.5481        7.296093
      0.36       1587.5149        6.665863
      0.45       1517.1074       5.9504753
      0.55       1451.4577        5.802082
      0.65       1365.3837       5.5896541
      0.75       1268.6849       5.4687547
      0.85        1144.767       4.0344123
         1        985.5625       3.6267236
      1.15       832.28664       3.2346954
       1.3       634.55041       2.4835273
       1.5       331.05512      0.98283607
         2       331.05512      0.98283607
