       350       5.1855948    0.0019081849
       400       6.2370442    0.0023819736
       440       7.9721138    0.0034447837
       480     -0.50942489     0.031700893
       520       8.5197139     0.023937188
       570       4.6432213     0.013147466
       625       2.3261825    0.0063828457
       700      0.98218557      0.00296035
       800      0.05761668   0.00013274305
      2000      0.05761668   0.00013274305
